uart/simulation/qsim/uart_fpga.msim.vcd
$comment
	File created using the following command:
		vcd file uart_fpga.msim.vcd -direction
$end
$date
	Tue Jan 23 23:11:21 2024
$end
$version
	ModelSim Version 2020.1
$end
$timescale
	1ps
$end

$scope module UART_TX_vlg_vec_tst $end
$var reg 1 ! clk $end
$var reg 8 " data [7:0] $end
$var reg 1 # en $end
$var reg 2 $ flag_count_data [1:0] $end
$var reg 1 % flag_parity $end
$var reg 1 & reset $end
$var wire 1 ' done $end
$var wire 1 ( tx $end

$scope module i1 $end
$var wire 1 ) gnd $end
$var wire 1 * vcc $end
$var wire 1 + unknown $end
$var tri1 1 , devclrn $end
$var tri1 1 - devpor $end
$var tri1 1 . devoe $end
$var wire 1 / clk~combout $end
$var wire 1 0 reset~combout $end
$var wire 1 1 Add0~18_combout $end
$var wire 1 2 Add0~23_combout $end
$var wire 1 3 Add0~20 $end
$var wire 1 4 Add0~6_combout $end
$var wire 1 5 Add0~11_combout $end
$var wire 1 6 Add0~8 $end
$var wire 1 7 Add0~8COUT1_193 $end
$var wire 1 8 Add0~0_combout $end
$var wire 1 9 Add0~5_combout $end
$var wire 1 : Add0~2 $end
$var wire 1 ; Add0~2COUT1_194 $end
$var wire 1 < Add0~12_combout $end
$var wire 1 = Add0~17_combout $end
$var wire 1 > always1~1_combout $end
$var wire 1 ? always1~0_combout $end
$var wire 1 @ always1~2_combout $end
$var wire 1 A en~combout $end
$var wire 1 B state.IDLE~regout $end
$var wire 1 C state.START_TRANSMIT~regout $end
$var wire 1 D Add0~14 $end
$var wire 1 E Add0~14COUT1_195 $end
$var wire 1 F Add0~24_combout $end
$var wire 1 G Add0~29_combout $end
$var wire 1 H Add0~26 $end
$var wire 1 I Add0~26COUT1_196 $end
$var wire 1 J Add0~30_combout $end
$var wire 1 K Add0~35_combout $end
$var wire 1 L Add0~32 $end
$var wire 1 M Add0~36_combout $end
$var wire 1 N Add0~41_combout $end
$var wire 1 O Add0~38 $end
$var wire 1 P Add0~38COUT1_197 $end
$var wire 1 Q Add0~42_combout $end
$var wire 1 R Add0~47_combout $end
$var wire 1 S Add0~44 $end
$var wire 1 T Add0~44COUT1_198 $end
$var wire 1 U Add0~48_combout $end
$var wire 1 V Add0~53_combout $end
$var wire 1 W Add0~50 $end
$var wire 1 X Add0~50COUT1_199 $end
$var wire 1 Y Add0~54_combout $end
$var wire 1 Z Add0~59_combout $end
$var wire 1 [ Add0~56 $end
$var wire 1 \ Add0~56COUT1_200 $end
$var wire 1 ] Add0~60_combout $end
$var wire 1 ^ Add0~65_combout $end
$var wire 1 _ Add0~62 $end
$var wire 1 ` Add0~66_combout $end
$var wire 1 a Add0~71_combout $end
$var wire 1 b Add0~68 $end
$var wire 1 c Add0~68COUT1_201 $end
$var wire 1 d Add0~72_combout $end
$var wire 1 e Add0~77_combout $end
$var wire 1 f Add0~74 $end
$var wire 1 g Add0~74COUT1_202 $end
$var wire 1 h Add0~78_combout $end
$var wire 1 i Add0~83_combout $end
$var wire 1 j Add0~80 $end
$var wire 1 k Add0~80COUT1_203 $end
$var wire 1 l Add0~84_combout $end
$var wire 1 m Add0~89_combout $end
$var wire 1 n Add0~86 $end
$var wire 1 o Add0~86COUT1_204 $end
$var wire 1 p Add0~90_combout $end
$var wire 1 q Add0~95_combout $end
$var wire 1 r Add0~92 $end
$var wire 1 s Add0~96_combout $end
$var wire 1 t Add0~101_combout $end
$var wire 1 u Add0~98 $end
$var wire 1 v Add0~98COUT1_205 $end
$var wire 1 w Add0~102_combout $end
$var wire 1 x Add0~107_combout $end
$var wire 1 y Add0~104 $end
$var wire 1 z Add0~104COUT1_206 $end
$var wire 1 { Add0~108_combout $end
$var wire 1 | Add0~113_combout $end
$var wire 1 } Add0~110 $end
$var wire 1 ~ Add0~110COUT1_207 $end
$var wire 1 !! Add0~114_combout $end
$var wire 1 "! Add0~119_combout $end
$var wire 1 #! Add0~116 $end
$var wire 1 $! Add0~116COUT1_208 $end
$var wire 1 %! Add0~120_combout $end
$var wire 1 &! Add0~125_combout $end
$var wire 1 '! Add0~122 $end
$var wire 1 (! Add0~126_combout $end
$var wire 1 )! Add0~131_combout $end
$var wire 1 *! Add0~128 $end
$var wire 1 +! Add0~128COUT1_209 $end
$var wire 1 ,! Add0~132_combout $end
$var wire 1 -! Add0~137_combout $end
$var wire 1 .! Add0~134 $end
$var wire 1 /! Add0~134COUT1_210 $end
$var wire 1 0! Add0~138_combout $end
$var wire 1 1! Add0~143_combout $end
$var wire 1 2! Add0~140 $end
$var wire 1 3! Add0~140COUT1_211 $end
$var wire 1 4! Add0~144_combout $end
$var wire 1 5! Add0~149_combout $end
$var wire 1 6! Add0~146 $end
$var wire 1 7! Add0~146COUT1_212 $end
$var wire 1 8! Add0~150_combout $end
$var wire 1 9! Add0~155_combout $end
$var wire 1 :! Add0~152 $end
$var wire 1 ;! Add0~156_combout $end
$var wire 1 <! Add0~161_combout $end
$var wire 1 =! Add0~158 $end
$var wire 1 >! Add0~158COUT1_213 $end
$var wire 1 ?! Add0~162_combout $end
$var wire 1 @! Add0~167_combout $end
$var wire 1 A! always1~9_combout $end
$var wire 1 B! always1~8_combout $end
$var wire 1 C! Add0~164 $end
$var wire 1 D! Add0~164COUT1_214 $end
$var wire 1 E! Add0~168_combout $end
$var wire 1 F! Add0~173_combout $end
$var wire 1 G! Add0~170 $end
$var wire 1 H! Add0~170COUT1_215 $end
$var wire 1 I! Add0~174_combout $end
$var wire 1 J! Add0~179_combout $end
$var wire 1 K! Add0~176 $end
$var wire 1 L! Add0~176COUT1_216 $end
$var wire 1 M! Add0~180_combout $end
$var wire 1 N! Add0~185_combout $end
$var wire 1 O! Add0~182 $end
$var wire 1 P! Add0~186_combout $end
$var wire 1 Q! Add0~191_combout $end
$var wire 1 R! always1~10_combout $end
$var wire 1 S! always1~5_combout $end
$var wire 1 T! always1~6_combout $end
$var wire 1 U! always1~4_combout $end
$var wire 1 V! always1~3_combout $end
$var wire 1 W! always1~7_combout $end
$var wire 1 X! always1~11_combout $end
$var wire 1 Y! Selector2~1_combout $end
$var wire 1 Z! state.TRANSMITTING~regout $end
$var wire 1 [! state.DONE_TRANSMIT~regout $end
$var wire 1 \! Mux0~0_combout $end
$var wire 1 ]! Mux0~1_combout $end
$var wire 1 ^! Mux0~2_combout $end
$var wire 1 _! Mux0~3_combout $end
$var wire 1 `! Mux0~4_combout $end
$var wire 1 a! Selector2~0_combout $end
$var wire 1 b! tmp~combout $end
$var wire 1 c! tx~0_combout $end
$var wire 1 d! flag_count_data~combout [1] $end
$var wire 1 e! flag_count_data~combout [0] $end
$var wire 1 f! data~combout [7] $end
$var wire 1 g! data~combout [6] $end
$var wire 1 h! data~combout [5] $end
$var wire 1 i! data~combout [4] $end
$var wire 1 j! data~combout [3] $end
$var wire 1 k! data~combout [2] $end
$var wire 1 l! data~combout [1] $end
$var wire 1 m! data~combout [0] $end
$var wire 1 n! pos [31] $end
$var wire 1 o! pos [30] $end
$var wire 1 p! pos [29] $end
$var wire 1 q! pos [28] $end
$var wire 1 r! pos [27] $end
$var wire 1 s! pos [26] $end
$var wire 1 t! pos [25] $end
$var wire 1 u! pos [24] $end
$var wire 1 v! pos [23] $end
$var wire 1 w! pos [22] $end
$var wire 1 x! pos [21] $end
$var wire 1 y! pos [20] $end
$var wire 1 z! pos [19] $end
$var wire 1 {! pos [18] $end
$var wire 1 |! pos [17] $end
$var wire 1 }! pos [16] $end
$var wire 1 ~! pos [15] $end
$var wire 1 !" pos [14] $end
$var wire 1 "" pos [13] $end
$var wire 1 #" pos [12] $end
$var wire 1 $" pos [11] $end
$var wire 1 %" pos [10] $end
$var wire 1 &" pos [9] $end
$var wire 1 '" pos [8] $end
$var wire 1 (" pos [7] $end
$var wire 1 )" pos [6] $end
$var wire 1 *" pos [5] $end
$var wire 1 +" pos [4] $end
$var wire 1 ," pos [3] $end
$var wire 1 -" pos [2] $end
$var wire 1 ." pos [1] $end
$var wire 1 /" pos [0] $end
$var wire 1 0" buffer_data [7] $end
$var wire 1 1" buffer_data [6] $end
$var wire 1 2" buffer_data [5] $end
$var wire 1 3" buffer_data [4] $end
$var wire 1 4" buffer_data [3] $end
$var wire 1 5" buffer_data [2] $end
$var wire 1 6" buffer_data [1] $end
$var wire 1 7" buffer_data [0] $end
$upscope $end
$upscope $end
$enddefinitions $end
#0
$dumpvars
0!
b0 "
0#
b11 $
0%
0&
0'
1(
0)
1*
x+
1,
1-
1.
0/
00
x1
02
x3
x4
05
16
x7
x8
09
0:
x;
x<
0=
x>
x?
x@
0A
0B
0C
1D
xE
xF
0G
0H
xI
xJ
0K
xL
xM
0N
xO
0P
xQ
0R
xS
1T
xU
0V
xW
0X
xY
0Z
x[
1\
x]
0^
0_
x`
0a
1b
xc
xd
0e
0f
xg
xh
0i
1j
xk
xl
0m
0n
xo
xp
0q
1r
xs
0t
xu
0v
xw
0x
xy
1z
x{
0|
x}
0~
x!!
0"!
x#!
1$!
x%!
0&!
0'!
x(!
0)!
1*!
x+!
x,!
0-!
0.!
x/!
x0!
01!
12!
x3!
x4!
05!
06!
x7!
x8!
09!
1:!
x;!
0<!
x=!
0>!
x?!
0@!
xA!
xB!
xC!
1D!
xE!
0F!
xG!
0H!
xI!
0J!
xK!
1L!
xM!
0N!
0O!
xP!
0Q!
xR!
xS!
xT!
xU!
xV!
xW!
xX!
0Y!
0Z!
0[!
x\!
x]!
x^!
x_!
x`!
0a!
xb!
1c!
1e!
1d!
0m!
0l!
0k!
0j!
0i!
0h!
0g!
0f!
x/"
x."
x-"
x,"
x+"
x*"
x)"
x("
x'"
x&"
x%"
x$"
x#"
x""
x!"
x~!
x}!
x|!
x{!
xz!
xy!
xx!
xw!
xv!
xu!
xt!
xs!
xr!
xq!
xp!
xo!
xn!
x7"
x6"
x5"
x4"
x3"
x2"
x1"
x0"
$end
#1500
1!
1/
#3000
0!
0/
#4500
1!
1/
#5000
b1000000 "
b1010000 "
b1010010 "
b1010011 "
1m!
1l!
1i!
1g!
#6000
1#
0!
1A
0/
#7500
1!
1/
1C
1B
0c!
17"
16"
05"
04"
13"
11"
00"
02"
1Y!
0n!
0o!
0p!
0q!
0r!
0s!
0t!
0u!
0v!
0w!
0x!
0y!
0z!
0{!
0|!
0}!
0~!
0!"
0""
0#"
0$"
0%"
0&"
0'"
0("
0)"
0*"
0+"
0,"
0-"
0."
0/"
0(
1R!
0P!
0M!
1K!
0I!
0G!
0E!
1A!
1C!
0?!
0=!
0;!
08!
07!
04!
1B!
13!
00!
0/!
0,!
1+!
0(!
0%!
1T!
1#!
0!!
0}
0{
1y
0w
0u
0s
1S!
0p
0o
0l
1k
0h
0g
0d
1U!
1c
0`
0]
1[
0Y
0W
0U
1V!
1S
0Q
0O
1L
0I
0?
0>
1E
0;
1^!
1\!
17
03
11
1W!
0M
0J
0@
0F
0<
1_!
1]!
08
04
1X!
1`!
#9000
0#
0!
0A
0/
