utils/saturation/simulation/test.vcd
$date
	Sat Mar 02 22:03:31 2024
$end
$version
	Icarus Verilog
$end
$timescale
	1s
$end
$scope module test $end
$var wire 2 ! register [1:0] $end
$var reg 1 " btn1 $end
$var reg 1 # btn2 $end
$var reg 1 $ clk $end
$var integer 32 % i [31:0] $end
$scope module saturation $end
$var wire 1 $ clk $end
$var wire 1 # decrease $end
$var wire 1 " increase $end
$var reg 2 & register [1:0] $end
$upscope $end
$upscope $end
$enddefinitions $end
#0
$dumpvars
b0 &
b0 %
0$
0#
1"
b0 !
$end
#1
b1 !
b1 &
1$
#2
0$
#3
b10 !
b10 &
1$
#4
0$
#5
1$
0"
#6
0$
#7
1$
#8
0$
#9
1$
#10
0$
#11
1$
#12
0$
#13
1$
#14
0$
#15
b11 !
b11 &
1$
b1 %
1"
#16
0$
#17
1$
#18
0$
#19
1$
#20
0$
0"
#21
1$
#22
0$
#23
1$
#24
0$
#25
1$
#26
0$
#27
1$
#28
0$
#29
1$
#30
0$
b10 %
1"
#31
1$
#32
0$
#33
1$
#34
0$
#35
1$
b0 %
0"
#36
0$
#37
1$
#38
0$
#39
1$
#40
0$
#41
1$
#42
0$
#43
1$
#44
0$
#45
1$
#46
0$
#47
1$
#48
0$
#49
1$
#50
0$
b1 %
1#
#51
b10 !
b10 &
1$
#52
0$
#53
b1 !
b1 &
1$
#54
0$
#55
1$
0#
#56
0$
#57
1$
#58
0$
#59
1$
#60
0$
#61
1$
#62
0$
#63
1$
#64
0$
#65
b0 !
b0 &
1$
b10 %
1#
#66
0$
#67
1$
#68
0$
#69
1$
#70
0$
0#
#71
1$
#72
0$
#73
1$
#74
0$
#75
1$
#76
0$
#77
1$
#78
0$
#79
1$
#80
0$
b11 %
1#
